[gd_scene load_steps=3 format=3 uid="uid://b0y2nbxqx3fkn"]

[ext_resource type="AudioStream" uid="uid://c2ne56kgli1a8" path="res://fonts-and-music/music/DavidKBD - Cosmic Pack 06 - Lunar Rampage-Variation5.ogg" id="1_i5oyu"]
[ext_resource type="Script" path="res://scripts/bg_music.gd" id="2_c2r4h"]

[node name="bg_music" type="AudioStreamPlayer"]
stream = ExtResource("1_i5oyu")
volume_db = -3.0
autoplay = true
script = ExtResource("2_c2r4h")
