[gd_scene load_steps=83 format=3 uid="uid://bbdcaei6d16jn"]

[ext_resource type="Script" path="res://scripts/shifu.gd" id="1_hxa2b"]
[ext_resource type="Shader" path="res://shader/shifu.gdshader" id="2_655fk"]
[ext_resource type="Texture2D" uid="uid://de50m62mwbka5" path="res://images/Shifu/Character_07-death_00.png" id="3_y3khm"]
[ext_resource type="Texture2D" uid="uid://8uhhvsrbkwdu" path="res://images/Shifu/Character_07-death_01.png" id="4_68ufa"]
[ext_resource type="Texture2D" uid="uid://rbcc6elgeldw" path="res://images/Shifu/Character_07-death_02.png" id="5_k1n25"]
[ext_resource type="Texture2D" uid="uid://rjcxcglujode" path="res://images/Shifu/Character_07-death_03.png" id="6_s3t5s"]
[ext_resource type="Texture2D" uid="uid://b0pj0pudmxyb3" path="res://images/Shifu/Character_07-death_04.png" id="7_hmx25"]
[ext_resource type="Texture2D" uid="uid://eujyphu0r5" path="res://images/Shifu/Character_07-death_05.png" id="8_cbo4b"]
[ext_resource type="Texture2D" uid="uid://bt1avsevye5pt" path="res://images/Shifu/Character_07-death_06.png" id="9_wufdu"]
[ext_resource type="Texture2D" uid="uid://dgftu23c50b82" path="res://images/Shifu/Character_07-death_07.png" id="10_n0r2a"]
[ext_resource type="Texture2D" uid="uid://2h67mgd2vc6" path="res://images/Shifu/Character_07-death_08.png" id="11_d85w0"]
[ext_resource type="Texture2D" uid="uid://tqaa3rgriui7" path="res://images/Shifu/Character_07-death_09.png" id="12_s2h67"]
[ext_resource type="Texture2D" uid="uid://daejdwn5j7647" path="res://images/Shifu/Character_07-death_10.png" id="13_x4pt4"]
[ext_resource type="Texture2D" uid="uid://qr1o38n11uye" path="res://images/Shifu/Character_07-death_11.png" id="14_smc2r"]
[ext_resource type="Texture2D" uid="uid://dlt4tebp0qwmd" path="res://images/Shifu/Character_07-death_12.png" id="15_3pgkc"]
[ext_resource type="Texture2D" uid="uid://dyer36ex1p2po" path="res://images/Shifu/Character_07-death_13.png" id="16_0xca7"]
[ext_resource type="Texture2D" uid="uid://buso5n1sas2wg" path="res://images/Shifu/Character_07-death_14.png" id="17_ijvly"]
[ext_resource type="Texture2D" uid="uid://dgbgxx4o3gilm" path="res://images/Shifu/Character_07-death_15.png" id="18_1egvn"]
[ext_resource type="Texture2D" uid="uid://b2w0vq5s1ri6y" path="res://images/Shifu/Character_07-death_16.png" id="19_sb3w0"]
[ext_resource type="Texture2D" uid="uid://b65vsohox142g" path="res://images/Shifu/Character_07-death_17.png" id="20_mkiiv"]
[ext_resource type="Texture2D" uid="uid://bo2ab5x310fu6" path="res://images/Shifu/Character_07-death_18.png" id="21_r4gpd"]
[ext_resource type="Texture2D" uid="uid://cyrbebdxx5m7q" path="res://images/Shifu/Character_07-death_19.png" id="22_hmm2t"]
[ext_resource type="Texture2D" uid="uid://bpq4p3igs65mh" path="res://images/Shifu/Character_07-death_20.png" id="23_7tit0"]
[ext_resource type="Texture2D" uid="uid://dtjp56qldlrb5" path="res://images/Shifu/Character_07-death_21.png" id="24_qo3bd"]
[ext_resource type="Texture2D" uid="uid://dnjrjshlfgyy" path="res://images/Shifu/Character_07-idle_01.png" id="25_4gt0p"]
[ext_resource type="Texture2D" uid="uid://bgt4blmiapeuh" path="res://images/Shifu/Character_07-idle_02.png" id="26_y7g3t"]
[ext_resource type="Texture2D" uid="uid://cip4o28u58ila" path="res://images/Shifu/Character_07-idle_03.png" id="27_khadr"]
[ext_resource type="Texture2D" uid="uid://bx3h33tfhwq73" path="res://images/Shifu/Character_07-idle_04.png" id="28_sn4gs"]
[ext_resource type="Texture2D" uid="uid://c76x2f3r1crpv" path="res://images/Shifu/Character_07-idle_05.png" id="29_tdbx8"]
[ext_resource type="Texture2D" uid="uid://bq6rhcc6w500h" path="res://images/Shifu/Character_07-idle_06.png" id="30_0kt3d"]
[ext_resource type="Texture2D" uid="uid://cbpgbrbxlpw15" path="res://images/Shifu/Character_07-idle_07.png" id="31_gh40x"]
[ext_resource type="Texture2D" uid="uid://bme8uiowxbga5" path="res://images/Shifu/Character_07-idle_08.png" id="32_0vjni"]
[ext_resource type="Texture2D" uid="uid://swn2ouys1vt6" path="res://images/Shifu/Character_07-idle_09.png" id="33_50qke"]
[ext_resource type="Texture2D" uid="uid://hs1j6j70mfi7" path="res://images/Shifu/Character_07-idle_10.png" id="34_len3i"]
[ext_resource type="Texture2D" uid="uid://0pfujh6tidbt" path="res://images/Shifu/Character_07-idle_11.png" id="35_ln7kp"]
[ext_resource type="Texture2D" uid="uid://dqi76c8yyjvvb" path="res://images/Shifu/Character_07-idle_12.png" id="36_8hoxp"]
[ext_resource type="Texture2D" uid="uid://mk1ncua7ov7u" path="res://images/Shifu/Character_07-idle_13.png" id="37_17suo"]
[ext_resource type="Texture2D" uid="uid://87hlfjsg1h0k" path="res://images/Shifu/Character_07-idle_14.png" id="38_sw4ps"]
[ext_resource type="Texture2D" uid="uid://ee7afsyglfgg" path="res://images/Shifu/Character_07-idle_15.png" id="39_ihixh"]
[ext_resource type="Texture2D" uid="uid://be7byukgnxhkp" path="res://images/Shifu/Character_07-idle_16.png" id="40_2dwh2"]
[ext_resource type="Texture2D" uid="uid://c152tc2i7q7wt" path="res://images/Shifu/Character_07-idle_17.png" id="41_3o4hc"]
[ext_resource type="Texture2D" uid="uid://cnxktqff26aca" path="res://images/Shifu/Character_07-idle_18.png" id="42_27oen"]
[ext_resource type="Texture2D" uid="uid://q2gn6q4aox8g" path="res://images/Shifu/Character_07-idle_19.png" id="43_nhrus"]
[ext_resource type="Texture2D" uid="uid://gq2e7psgu6w4" path="res://images/Shifu/Character_07-idle_20.png" id="44_6i7ml"]
[ext_resource type="Texture2D" uid="uid://dufu4ugpyt76h" path="res://images/Shifu/Character_07-idle_21.png" id="45_5a633"]
[ext_resource type="Texture2D" uid="uid://b00cccb6ya5cp" path="res://images/Shifu/Character_07-idle_22.png" id="46_8eleq"]
[ext_resource type="Texture2D" uid="uid://g1sml7kmglxc" path="res://images/Shifu/Character_07-idle_23.png" id="47_dsb8q"]
[ext_resource type="Texture2D" uid="uid://6rcqjx2mv7t7" path="res://images/Shifu/Character_07-idle_24.png" id="48_s5p6k"]
[ext_resource type="Texture2D" uid="uid://dtxkp7ehccxqp" path="res://images/Shifu/Character_07-idle_25.png" id="49_g03be"]
[ext_resource type="Texture2D" uid="uid://c54khqxi1hd18" path="res://images/Shifu/Character_07-idle_26.png" id="50_mn1ud"]
[ext_resource type="Texture2D" uid="uid://dsaya16peml1w" path="res://images/Shifu/Character_07-idle_27.png" id="51_4nwik"]
[ext_resource type="Texture2D" uid="uid://7i5s08moq0yf" path="res://images/Shifu/Character_07-idle_28.png" id="52_e42w6"]
[ext_resource type="Texture2D" uid="uid://ddrwl8lpidqyt" path="res://images/Shifu/Character_07-idle_29.png" id="53_dfale"]
[ext_resource type="Texture2D" uid="uid://d2me77gf6nh3p" path="res://images/Shifu/Character_07-idle_30.png" id="54_ntjh3"]
[ext_resource type="Texture2D" uid="uid://dmwecsv805ia6" path="res://images/Shifu/Character_07-idle_31.png" id="55_76pef"]
[ext_resource type="Texture2D" uid="uid://dsak6pxc2bgmp" path="res://images/Shifu/Character_07-idle_32.png" id="56_j3k63"]
[ext_resource type="Texture2D" uid="uid://dan11lkbkjp6q" path="res://images/Shifu/Character_07-idle_33.png" id="57_c0jk0"]
[ext_resource type="Texture2D" uid="uid://bufn2s3obisi5" path="res://images/Shifu/Character_07-idle_34.png" id="58_lujyt"]
[ext_resource type="Texture2D" uid="uid://ckx3s7rc7x57j" path="res://images/Shifu/Character_07-idle_35.png" id="59_vnbv3"]
[ext_resource type="Texture2D" uid="uid://blyou2mm7nq8j" path="res://images/Shifu/Character_07-idle_36.png" id="60_gdpx0"]
[ext_resource type="Texture2D" uid="uid://d105era2h7lpu" path="res://images/Shifu/Character_07-idle_37.png" id="61_jj4vi"]
[ext_resource type="Texture2D" uid="uid://ch60jk8ho7ale" path="res://images/Shifu/Character_07-idle_38.png" id="62_v132p"]
[ext_resource type="Texture2D" uid="uid://ckgfhd2dohd5l" path="res://images/Shifu/Character_07-idle_39.png" id="63_nk22g"]
[ext_resource type="Texture2D" uid="uid://dikqow47au2nh" path="res://images/Shifu/Character_07-idle_40.png" id="64_eigpo"]
[ext_resource type="Texture2D" uid="uid://cd7fids4fq827" path="res://images/Shifu/Character_07-idle_41.png" id="65_fyh07"]
[ext_resource type="Texture2D" uid="uid://ck2n8gguv77tt" path="res://images/Shifu/Character_07-idle_42.png" id="66_gid2s"]
[ext_resource type="Texture2D" uid="uid://hxd2u0m6w3rx" path="res://images/Shifu/Character_07-idle_43.png" id="67_gcd8u"]
[ext_resource type="Script" path="res://scripts/learning_material_scripts/intro_level/shifu's-lessons/topic_one/dialogue_box_L9.gd" id="68_bp4h1"]
[ext_resource type="Texture2D" uid="uid://b562inkdnpvh7" path="res://images/learning_material_boxes/yellow.png" id="69_vayy2"]
[ext_resource type="FontFile" uid="uid://cwbqlu04cyyvj" path="res://fonts-and-music/fonts/quiz_code_pages_font/LibreBaskerville-Bold.ttf" id="70_ncsec"]
[ext_resource type="Texture2D" uid="uid://c61vkjdl8heew" path="res://images/learning_material_boxes/arrow_yellow.png" id="71_03cus"]
[ext_resource type="FontFile" uid="uid://c1w4uwymgxw6f" path="res://fonts-and-music/fonts/quiz_code_pages_font/LibreBaskerville-Italic.ttf" id="72_n753d"]
[ext_resource type="Script" path="res://scripts/block_area.gd" id="73_d0kyj"]

[sub_resource type="ShaderMaterial" id="ShaderMaterial_n8aih"]
shader = ExtResource("2_655fk")
shader_parameter/lines = 100
shader_parameter/color1 = Color(0, 0, 1, 1)
shader_parameter/color2 = Color(1, 0, 0, 1)
shader_parameter/speed = 0.4
shader_parameter/alpha = 0.5
shader_parameter/noise_amount = 0.05
shader_parameter/effect_factor = 0.4

[sub_resource type="SpriteFrames" id="SpriteFrames_x0fgr"]
animations = [{
"frames": [{
"duration": 1.0,
"texture": ExtResource("3_y3khm")
}, {
"duration": 1.0,
"texture": ExtResource("4_68ufa")
}, {
"duration": 1.0,
"texture": ExtResource("5_k1n25")
}, {
"duration": 1.0,
"texture": ExtResource("6_s3t5s")
}, {
"duration": 1.0,
"texture": ExtResource("7_hmx25")
}, {
"duration": 1.0,
"texture": ExtResource("8_cbo4b")
}, {
"duration": 1.0,
"texture": ExtResource("9_wufdu")
}, {
"duration": 1.0,
"texture": ExtResource("10_n0r2a")
}, {
"duration": 1.0,
"texture": ExtResource("11_d85w0")
}, {
"duration": 1.0,
"texture": ExtResource("12_s2h67")
}, {
"duration": 1.0,
"texture": ExtResource("13_x4pt4")
}, {
"duration": 1.0,
"texture": ExtResource("14_smc2r")
}, {
"duration": 1.0,
"texture": ExtResource("15_3pgkc")
}, {
"duration": 1.0,
"texture": ExtResource("16_0xca7")
}, {
"duration": 1.0,
"texture": ExtResource("17_ijvly")
}, {
"duration": 1.0,
"texture": ExtResource("18_1egvn")
}, {
"duration": 1.0,
"texture": ExtResource("19_sb3w0")
}, {
"duration": 1.0,
"texture": ExtResource("20_mkiiv")
}, {
"duration": 1.0,
"texture": ExtResource("21_r4gpd")
}, {
"duration": 1.0,
"texture": ExtResource("22_hmm2t")
}, {
"duration": 1.0,
"texture": ExtResource("23_7tit0")
}, {
"duration": 1.0,
"texture": ExtResource("24_qo3bd")
}],
"loop": false,
"name": &"back_to_sleep",
"speed": 15.0
}, {
"frames": [{
"duration": 1.0,
"texture": ExtResource("25_4gt0p")
}, {
"duration": 1.0,
"texture": ExtResource("26_y7g3t")
}, {
"duration": 1.0,
"texture": ExtResource("27_khadr")
}, {
"duration": 1.0,
"texture": ExtResource("28_sn4gs")
}, {
"duration": 1.0,
"texture": ExtResource("29_tdbx8")
}, {
"duration": 1.0,
"texture": ExtResource("30_0kt3d")
}, {
"duration": 1.0,
"texture": ExtResource("31_gh40x")
}, {
"duration": 1.0,
"texture": ExtResource("32_0vjni")
}, {
"duration": 1.0,
"texture": ExtResource("33_50qke")
}, {
"duration": 1.0,
"texture": ExtResource("34_len3i")
}, {
"duration": 1.0,
"texture": ExtResource("35_ln7kp")
}, {
"duration": 1.0,
"texture": ExtResource("36_8hoxp")
}, {
"duration": 1.0,
"texture": ExtResource("37_17suo")
}, {
"duration": 1.0,
"texture": ExtResource("38_sw4ps")
}, {
"duration": 1.0,
"texture": ExtResource("39_ihixh")
}, {
"duration": 1.0,
"texture": ExtResource("40_2dwh2")
}, {
"duration": 1.0,
"texture": ExtResource("41_3o4hc")
}, {
"duration": 1.0,
"texture": ExtResource("42_27oen")
}, {
"duration": 1.0,
"texture": ExtResource("43_nhrus")
}, {
"duration": 1.0,
"texture": ExtResource("44_6i7ml")
}, {
"duration": 1.0,
"texture": ExtResource("45_5a633")
}, {
"duration": 1.0,
"texture": ExtResource("46_8eleq")
}, {
"duration": 1.0,
"texture": ExtResource("47_dsb8q")
}, {
"duration": 1.0,
"texture": ExtResource("48_s5p6k")
}, {
"duration": 1.0,
"texture": ExtResource("49_g03be")
}, {
"duration": 1.0,
"texture": ExtResource("50_mn1ud")
}, {
"duration": 1.0,
"texture": ExtResource("51_4nwik")
}, {
"duration": 1.0,
"texture": ExtResource("52_e42w6")
}, {
"duration": 1.0,
"texture": ExtResource("53_dfale")
}, {
"duration": 1.0,
"texture": ExtResource("54_ntjh3")
}, {
"duration": 1.0,
"texture": ExtResource("55_76pef")
}, {
"duration": 1.0,
"texture": ExtResource("56_j3k63")
}, {
"duration": 1.0,
"texture": ExtResource("57_c0jk0")
}, {
"duration": 1.0,
"texture": ExtResource("58_lujyt")
}, {
"duration": 1.0,
"texture": ExtResource("59_vnbv3")
}, {
"duration": 1.0,
"texture": ExtResource("60_gdpx0")
}, {
"duration": 1.0,
"texture": ExtResource("61_jj4vi")
}, {
"duration": 1.0,
"texture": ExtResource("62_v132p")
}, {
"duration": 1.0,
"texture": ExtResource("63_nk22g")
}, {
"duration": 1.0,
"texture": ExtResource("64_eigpo")
}, {
"duration": 1.0,
"texture": ExtResource("65_fyh07")
}, {
"duration": 1.0,
"texture": ExtResource("66_gid2s")
}, {
"duration": 1.0,
"texture": ExtResource("67_gcd8u")
}],
"loop": true,
"name": &"idle",
"speed": 15.0
}, {
"frames": [{
"duration": 1.0,
"texture": ExtResource("24_qo3bd")
}],
"loop": true,
"name": &"sleep",
"speed": 15.0
}, {
"frames": [{
"duration": 1.0,
"texture": ExtResource("24_qo3bd")
}, {
"duration": 1.0,
"texture": ExtResource("23_7tit0")
}, {
"duration": 1.0,
"texture": ExtResource("22_hmm2t")
}, {
"duration": 1.0,
"texture": ExtResource("21_r4gpd")
}, {
"duration": 1.0,
"texture": ExtResource("20_mkiiv")
}, {
"duration": 1.0,
"texture": ExtResource("19_sb3w0")
}, {
"duration": 1.0,
"texture": ExtResource("18_1egvn")
}, {
"duration": 1.0,
"texture": ExtResource("16_0xca7")
}, {
"duration": 1.0,
"texture": ExtResource("15_3pgkc")
}, {
"duration": 1.0,
"texture": ExtResource("14_smc2r")
}, {
"duration": 1.0,
"texture": ExtResource("13_x4pt4")
}, {
"duration": 1.0,
"texture": ExtResource("12_s2h67")
}, {
"duration": 1.0,
"texture": ExtResource("11_d85w0")
}, {
"duration": 1.0,
"texture": ExtResource("10_n0r2a")
}, {
"duration": 1.0,
"texture": ExtResource("9_wufdu")
}, {
"duration": 1.0,
"texture": ExtResource("8_cbo4b")
}, {
"duration": 1.0,
"texture": ExtResource("7_hmx25")
}, {
"duration": 1.0,
"texture": ExtResource("6_s3t5s")
}, {
"duration": 1.0,
"texture": ExtResource("5_k1n25")
}, {
"duration": 1.0,
"texture": ExtResource("4_68ufa")
}],
"loop": false,
"name": &"wake_up",
"speed": 15.0
}]

[sub_resource type="CircleShape2D" id="CircleShape2D_pfidp"]
radius = 487.775

[sub_resource type="Animation" id="Animation_epu7n"]
resource_name = "display"
length = 5.0
tracks/0/type = "value"
tracks/0/imported = false
tracks/0/enabled = true
tracks/0/path = NodePath("dialogue_box_sprite:modulate")
tracks/0/interp = 1
tracks/0/loop_wrap = true
tracks/0/keys = {
"times": PackedFloat32Array(0.3, 2.4),
"transitions": PackedFloat32Array(1, 1),
"update": 0,
"values": [Color(1, 1, 1, 0), Color(1, 1, 1, 1)]
}

[sub_resource type="Animation" id="Animation_veix2"]
resource_name = "dissolve"
length = 4.0
tracks/0/type = "value"
tracks/0/imported = false
tracks/0/enabled = true
tracks/0/path = NodePath("dialogue_box_sprite:modulate")
tracks/0/interp = 1
tracks/0/loop_wrap = true
tracks/0/keys = {
"times": PackedFloat32Array(0.3, 2.1),
"transitions": PackedFloat32Array(1, 1),
"update": 0,
"values": [Color(1, 1, 1, 1), Color(1, 1, 1, 0)]
}

[sub_resource type="Animation" id="Animation_wo8im"]
resource_name = "shake_animation"
tracks/0/type = "value"
tracks/0/imported = false
tracks/0/enabled = true
tracks/0/path = NodePath("dialogue_box_sprite:position")
tracks/0/interp = 1
tracks/0/loop_wrap = true
tracks/0/keys = {
"times": PackedFloat32Array(0, 0.2, 0.4, 0.6, 0.8, 1),
"transitions": PackedFloat32Array(1, 1, 1, 1, 1, 1),
"update": 0,
"values": [Vector2(-99, 27), Vector2(-109, 27), Vector2(-89, 27), Vector2(-149, 27), Vector2(-99, 27), Vector2(-109, 27)]
}

[sub_resource type="AnimationLibrary" id="AnimationLibrary_exk74"]
_data = {
"display": SubResource("Animation_epu7n"),
"dissolve": SubResource("Animation_veix2"),
"shake_animation": SubResource("Animation_wo8im")
}

[sub_resource type="RectangleShape2D" id="RectangleShape2D_8j3br"]
size = Vector2(701, 844)

[sub_resource type="RectangleShape2D" id="RectangleShape2D_hc6bu"]
size = Vector2(684, 843.5)

[node name="Shifu" type="Node2D"]
script = ExtResource("1_hxa2b")

[node name="AnimatedSprite2D" type="AnimatedSprite2D" parent="."]
material = SubResource("ShaderMaterial_n8aih")
position = Vector2(163, 244)
scale = Vector2(0.857895, 0.782456)
sprite_frames = SubResource("SpriteFrames_x0fgr")
animation = &"back_to_sleep"
autoplay = "sleep"

[node name="encounter_area" type="Area2D" parent="AnimatedSprite2D"]
position = Vector2(62.9448, 15.3363)
scale = Vector2(1.11839, 1.13491)

[node name="collision_shape_2d" type="CollisionShape2D" parent="AnimatedSprite2D/encounter_area"]
position = Vector2(3.12677, -27.0265)
shape = SubResource("CircleShape2D_pfidp")

[node name="dialogue" type="Control" parent="."]
layout_mode = 3
anchors_preset = 0
offset_left = 416.0
offset_top = 68.0
offset_right = 416.0
offset_bottom = 68.0
script = ExtResource("68_bp4h1")

[node name="AnimationPlayer" type="AnimationPlayer" parent="dialogue"]
reset_on_save = false
libraries = {
"": SubResource("AnimationLibrary_exk74")
}

[node name="dialogue_box_sprite" type="TextureRect" parent="dialogue"]
modulate = Color(1, 1, 1, 0)
layout_mode = 0
offset_left = -99.0
offset_top = 27.0
offset_right = 697.0
offset_bottom = 390.0
texture = ExtResource("69_vayy2")

[node name="panel" type="Panel" parent="dialogue/dialogue_box_sprite"]
modulate = Color(1, 1, 1, 0.752941)
layout_mode = 0
offset_left = 155.0
offset_top = 48.0
offset_right = 662.0
offset_bottom = 314.0

[node name="dialogue_text" type="RichTextLabel" parent="dialogue/dialogue_box_sprite/panel"]
layout_mode = 0
offset_left = 9.0
offset_top = 10.0
offset_right = 497.0
offset_bottom = 237.0
theme_override_colors/default_color = Color(1, 1, 1, 1)
theme_override_fonts/bold_font = ExtResource("70_ncsec")
theme_override_font_sizes/normal_font_size = 24
bbcode_enabled = true

[node name="Arrow" type="Sprite2D" parent="dialogue/dialogue_box_sprite/panel"]
visible = false
position = Vector2(477.052, 243.214)
rotation = 1.5708
texture = ExtResource("71_03cus")

[node name="VBoxContainer" type="VBoxContainer" parent="dialogue/dialogue_box_sprite/panel"]
layout_mode = 1
anchors_preset = 12
anchor_top = 1.0
anchor_right = 1.0
anchor_bottom = 1.0
offset_top = -29.0
grow_horizontal = 2
grow_vertical = 0

[node name="Button" type="Button" parent="dialogue/dialogue_box_sprite/panel/VBoxContainer"]
modulate = Color(1, 1, 1, 0.839216)
self_modulate = Color(1, 1, 1, 0.835294)
layout_mode = 2
theme_override_fonts/font = ExtResource("72_n753d")
text = "Got it!"

[node name="next_char" type="Timer" parent="dialogue"]

[node name="next_message" type="Timer" parent="dialogue"]

[node name="block_area" type="StaticBody2D" parent="dialogue"]
script = ExtResource("73_d0kyj")

[node name="area_2d" type="Area2D" parent="dialogue/block_area"]

[node name="collision_shape_2d" type="CollisionShape2D" parent="dialogue/block_area/area_2d"]
position = Vector2(372.5, 219)
shape = SubResource("RectangleShape2D_8j3br")
debug_color = Color(0.788235, 0, 0.0196078, 0.419608)

[node name="collision_shape_2d" type="CollisionShape2D" parent="dialogue/block_area"]
position = Vector2(372, 219.25)
shape = SubResource("RectangleShape2D_hc6bu")
debug_color = Color(0, 0, 0, 0.0784314)

[connection signal="animation_finished" from="AnimatedSprite2D" to="." method="_on_animated_sprite_2d_animation_finished"]
[connection signal="area_entered" from="AnimatedSprite2D/encounter_area" to="." method="_on_shifu_encounter_area_body_entered"]
[connection signal="body_exited" from="AnimatedSprite2D/encounter_area" to="." method="_on_shifu_encounter_area_body_exited"]
[connection signal="pressed" from="dialogue/dialogue_box_sprite/panel/VBoxContainer/Button" to="dialogue" method="_on_button_pressed" flags=18]
[connection signal="timeout" from="dialogue/next_char" to="dialogue" method="_on_next_char_timeout" flags=18]
[connection signal="timeout" from="dialogue/next_message" to="dialogue" method="_on_next_message_timeout" flags=18]
[connection signal="player_hit" from="dialogue/block_area" to="dialogue" method="_on_block_area_player_hit" flags=18]
